{
  "data": [
    {
      "title": "WR 263: Developers impostores: ¡Ya no estás solo!",
      "link": "https://www.spreaker.com/user/10034317/web-reactiva-263",
      "pubDate": "Fri, 19 May 2023 05:00:02 +0000",
      "enclosure": { "url": "https://api.spreaker.com/download/episode/53922401/web_reactiva_263.mp3", "length": "47518346", "type": "audio/mpeg" },
      "content": "",
      "contentSnippet": "",
      "guid": "https://api.spreaker.com/episode/53922401",
      "isoDate": "2023-05-19T05:00:02.000Z",
      "itunes": [],
      "spreaker_episode_id": "53922401",
      "audio_file": "https://api.spreaker.com/download/episode/53922401/web_reactiva_263.mp3",
      "published_at": 1684472402,
      "number": "263",
      "source": "feed",
      "description": "",
      "image_url": "https://d3wo5wojvuv7l.cloudfront.net/t_rss_itunes_square_1400/images.spreaker.com/original/445b8e758d3f127223542d4132560c58.jpg",
      "slug": "developers-impostores-ya-no-estas-solo",
      "podcast": "web-reactiva"
    },
    {
      "title": "WR 262: Crea gráficos y presentaciones con Markdown",
      "link": "https://www.spreaker.com/user/10034317/web-reactiva-262",
      "pubDate": "Tue, 25 Apr 2023 06:27:35 +0000",
      "enclosure": { "url": "https://api.spreaker.com/download/episode/53634330/web_reactiva_262.mp3", "length": "15409991", "type": "audio/mpeg" },
      "content": "",
      "contentSnippet": "",
      "guid": "https://api.spreaker.com/episode/53634330",
      "isoDate": "2023-04-25T06:27:35.000Z",
      "itunes": [],
      "spreaker_episode_id": "53634330",
      "audio_file": "https://api.spreaker.com/download/episode/53634330/web_reactiva_262.mp3",
      "published_at": 1682404055,
      "number": "262",
      "source": "feed",
      "description": "",
      "image_url": "https://d3wo5wojvuv7l.cloudfront.net/t_rss_itunes_square_1400/images.spreaker.com/original/445b8e758d3f127223542d4132560c58.jpg",
      "slug": "crea-graficos-y-presentaciones-con-markdown",
      "podcast": "web-reactiva"
    },
    {
      "title": "WR 261: Aprende a programar gratis de forma efectiva",
      "link": "https://www.spreaker.com/user/10034317/web-reactiva-261",
      "pubDate": "Fri, 21 Apr 2023 06:44:18 +0000",
      "enclosure": { "url": "https://api.spreaker.com/download/episode/53595774/web_reactiva_261.mp3", "length": "16776090", "type": "audio/mpeg" },
      "content": "",
      "contentSnippet": "",
      "guid": "https://api.spreaker.com/episode/53595774",
      "isoDate": "2023-04-21T06:44:18.000Z",
      "itunes": [],
      "spreaker_episode_id": "53595774",
      "audio_file": "https://api.spreaker.com/download/episode/53595774/web_reactiva_261.mp3",
      "published_at": 1682059458,
      "number": "261",
      "source": "feed",
      "description": "",
      "image_url": "https://d3wo5wojvuv7l.cloudfront.net/t_rss_itunes_square_1400/images.spreaker.com/original/445b8e758d3f127223542d4132560c58.jpg",
      "slug": "aprende-a-programar-gratis-de-forma-efectiva",
      "podcast": "web-reactiva"
    },
    {
      "title": "Cómo usar la IA para ser más productivo en programación",
      "link": "https://www.spreaker.com/user/10034317/web-reactiva-260",
      "pubDate": "Fri, 31 Mar 2023 05:00:02 +0000",
      "enclosure": { "url": "https://api.spreaker.com/download/episode/53392848/web_reactiva_260.mp3", "length": "20130213", "type": "audio/mpeg" },
      "content": "",
      "contentSnippet": "",
      "guid": "https://api.spreaker.com/episode/53392848",
      "isoDate": "2023-03-31T05:00:02.000Z",
      "itunes": [],
      "spreaker_episode_id": 53392848,
      "audio_file": "https://api.spreaker.com/v2/episodes/53392848/download.mp3",
      "published_at": 1680220800,
      "number": "260",
      "source": "markdown",
      "id": "260",
      "excerpt": "Herramientas útiles y gratuitas también para generar contenido.",
      "date": "2023-03-31",
      "slug": "asi-estoy-usando-la-ia-para-ser-mas-productivo-e-ingenioso",
      "description": "",
      "image_url": "https://d3wo5wojvuv7l.cloudfront.net/t_rss_itunes_square_1400/images.spreaker.com/original/445b8e758d3f127223542d4132560c58.jpg",
      "podcast": "web-reactiva"
    },
    {
      "title": "WR 259: ¿Son los nocoders más capaces de sacar proyectos adelante? Con Abel Fernández y Víctor Millán",
      "link": "https://www.spreaker.com/user/10034317/web-reactiva-259",
      "pubDate": "Mon, 13 Mar 2023 07:01:58 +0000",
      "enclosure": { "url": "https://api.spreaker.com/download/episode/53174719/web_reactiva_259.mp3", "length": "47114911", "type": "audio/mpeg" },
      "content": "",
      "contentSnippet": "",
      "guid": "https://api.spreaker.com/episode/53174719",
      "isoDate": "2023-03-13T07:01:58.000Z",
      "itunes": [],
      "spreaker_episode_id": "53174719",
      "audio_file": "https://api.spreaker.com/download/episode/53174719/web_reactiva_259.mp3",
      "published_at": 1678690918,
      "number": "259",
      "source": "feed",
      "description": "",
      "image_url": "https://d3wo5wojvuv7l.cloudfront.net/t_rss_itunes_square_1400/images.spreaker.com/original/445b8e758d3f127223542d4132560c58.jpg",
      "slug": "son-los-nocoders-mas-capaces-de-sacar-proyectos-adelante-con-abel-fernandez-y-victor-millan",
      "podcast": "web-reactiva"
    },
    {
      "title": "WR 258: Un juego basado 100% en blockchain: Bunny Runners",
      "link": "https://www.spreaker.com/user/10034317/web-reactiva-258",
      "pubDate": "Mon, 20 Feb 2023 08:27:43 +0000",
      "enclosure": { "url": "https://api.spreaker.com/download/episode/52783226/web_reactiva_258.mp3", "length": "38660015", "type": "audio/mpeg" },
      "content": "",
      "contentSnippet": "",
      "guid": "https://api.spreaker.com/episode/52783226",
      "isoDate": "2023-02-20T08:27:43.000Z",
      "itunes": [],
      "spreaker_episode_id": "52783226",
      "audio_file": "https://api.spreaker.com/download/episode/52783226/web_reactiva_258.mp3",
      "published_at": 1676881663,
      "number": "258",
      "source": "feed",
      "description": "",
      "image_url": "https://d3wo5wojvuv7l.cloudfront.net/t_rss_itunes_square_1400/images.spreaker.com/original/445b8e758d3f127223542d4132560c58.jpg",
      "slug": "un-juego-basado-100por-ciento-en-blockchain-bunny-runners",
      "podcast": "web-reactiva"
    },
    {
      "title": "WR 257: TypeScript puede ser tu lenguaje para SIEMPRE",
      "link": "https://www.spreaker.com/user/10034317/web-reactiva-257",
      "pubDate": "Mon, 13 Feb 2023 06:00:02 +0000",
      "enclosure": { "url": "https://api.spreaker.com/download/episode/52710579/web_reactiva_257.mp3", "length": "14532590", "type": "audio/mpeg" },
      "content": "",
      "contentSnippet": "",
      "guid": "https://api.spreaker.com/episode/52710579",
      "isoDate": "2023-02-13T06:00:02.000Z",
      "itunes": [],
      "spreaker_episode_id": "52710579",
      "audio_file": "https://api.spreaker.com/download/episode/52710579/web_reactiva_257.mp3",
      "published_at": 1676268002,
      "number": "257",
      "source": "feed",
      "description": "",
      "image_url": "https://d3wo5wojvuv7l.cloudfront.net/t_rss_itunes_square_1400/images.spreaker.com/original/445b8e758d3f127223542d4132560c58.jpg",
      "slug": "typescript-puede-ser-tu-lenguaje-para-siempre",
      "podcast": "web-reactiva"
    },
    {
      "title": "WR 256: Developers Impostores: Código sano in corpore sano",
      "link": "https://www.spreaker.com/user/10034317/web-reactiva-256",
      "pubDate": "Mon, 06 Feb 2023 06:00:02 +0000",
      "enclosure": { "url": "https://api.spreaker.com/download/episode/52620184/web_reactiva_256.mp3", "length": "40872795", "type": "audio/mpeg" },
      "content": "",
      "contentSnippet": "",
      "guid": "https://api.spreaker.com/episode/52620184",
      "isoDate": "2023-02-06T06:00:02.000Z",
      "itunes": [],
      "spreaker_episode_id": "52620184",
      "audio_file": "https://api.spreaker.com/download/episode/52620184/web_reactiva_256.mp3",
      "published_at": 1675663202,
      "number": "256",
      "source": "feed",
      "description": "",
      "image_url": "https://d3wo5wojvuv7l.cloudfront.net/t_rss_itunes_square_1400/images.spreaker.com/original/445b8e758d3f127223542d4132560c58.jpg",
      "slug": "developers-impostores-codigo-sano-in-corpore-sano",
      "podcast": "web-reactiva"
    },
    {
      "title": "WR 255: ¿CMS o programación a medida? Con Érica Aguado",
      "link": "https://www.spreaker.com/user/10034317/web-reactiva-255",
      "pubDate": "Fri, 20 Jan 2023 08:06:27 +0000",
      "enclosure": { "url": "https://api.spreaker.com/download/episode/52488156/web_reactiva_255.mp3", "length": "23794356", "type": "audio/mpeg" },
      "content": "",
      "contentSnippet": "",
      "guid": "https://api.spreaker.com/episode/52488156",
      "isoDate": "2023-01-20T08:06:27.000Z",
      "itunes": [],
      "spreaker_episode_id": "52488156",
      "audio_file": "https://api.spreaker.com/download/episode/52488156/web_reactiva_255.mp3",
      "published_at": 1674201987,
      "number": "255",
      "source": "feed",
      "description": "",
      "image_url": "https://d3wo5wojvuv7l.cloudfront.net/t_rss_itunes_square_1400/images.spreaker.com/original/f9e31f313b0a6aec89a3c36ef141e2fe.jpg",
      "slug": "cms-o-programacion-a-medida-con-erica-aguado",
      "podcast": "web-reactiva"
    },
    {
      "title": "WR 254: Lo que me gustaría aprender en 2023",
      "link": "https://www.spreaker.com/user/10034317/web-reactiva-254",
      "pubDate": "Fri, 13 Jan 2023 07:37:10 +0000",
      "enclosure": { "url": "https://api.spreaker.com/download/episode/52424650/web_reactiva_254.mp3", "length": "11177840", "type": "audio/mpeg" },
      "content": "",
      "contentSnippet": "",
      "guid": "https://api.spreaker.com/episode/52424650",
      "isoDate": "2023-01-13T07:37:10.000Z",
      "itunes": [],
      "spreaker_episode_id": "52424650",
      "audio_file": "https://api.spreaker.com/download/episode/52424650/web_reactiva_254.mp3",
      "published_at": 1673595430,
      "number": "254",
      "source": "feed",
      "description": "",
      "image_url": "https://d3wo5wojvuv7l.cloudfront.net/t_rss_itunes_square_1400/images.spreaker.com/original/445b8e758d3f127223542d4132560c58.jpg",
      "slug": "lo-que-me-gustaria-aprender-en-2023",
      "podcast": "web-reactiva"
    },
    {
      "title": "WR 253: El último push del año con PEUM",
      "link": "https://www.spreaker.com/user/10034317/web-reactiva-253",
      "pubDate": "Mon, 26 Dec 2022 09:22:08 +0000",
      "enclosure": { "url": "https://api.spreaker.com/download/episode/52279244/web_reactiva_253.mp3", "length": "67763140", "type": "audio/mpeg" },
      "content": "",
      "contentSnippet": "",
      "guid": "https://api.spreaker.com/episode/52279244",
      "isoDate": "2022-12-26T09:22:08.000Z",
      "itunes": [],
      "spreaker_episode_id": "52279244",
      "audio_file": "https://api.spreaker.com/download/episode/52279244/web_reactiva_253.mp3",
      "published_at": 1672046528,
      "number": "253",
      "source": "feed",
      "description": "",
      "image_url": "https://d3wo5wojvuv7l.cloudfront.net/t_rss_itunes_square_1400/images.spreaker.com/original/445b8e758d3f127223542d4132560c58.jpg",
      "slug": "el-ultimo-push-del-ano-con-peum",
      "podcast": "web-reactiva"
    },
    {
      "title": "WR 252: Developers Impostores: ¿Qué pasa si no estimo bien las tareas?",
      "link": "https://www.spreaker.com/user/10034317/web-reactiva-252",
      "pubDate": "Fri, 09 Dec 2022 06:00:03 +0000",
      "enclosure": { "url": "https://api.spreaker.com/download/episode/52133708/web_reactiva_252.mp3", "length": "41063385", "type": "audio/mpeg" },
      "content": "",
      "contentSnippet": "",
      "guid": "https://api.spreaker.com/episode/52133708",
      "isoDate": "2022-12-09T06:00:03.000Z",
      "itunes": [],
      "spreaker_episode_id": "52133708",
      "audio_file": "https://api.spreaker.com/download/episode/52133708/web_reactiva_252.mp3",
      "published_at": 1670565603,
      "number": "252",
      "source": "feed",
      "description": "",
      "image_url": "https://d3wo5wojvuv7l.cloudfront.net/t_rss_itunes_square_1400/images.spreaker.com/original/445b8e758d3f127223542d4132560c58.jpg",
      "slug": "developers-impostores-que-pasa-si-no-estimo-bien-las-tareas",
      "podcast": "web-reactiva"
    }
  ],
  "links": {
    "self": "/api/podcast/episodes?page=1",
    "first": "/api/podcast/episodes?page=1",
    "last": "/api/podcast/episodes?page=22",
    "next": "/api/podcast/episodes?page=2"
  },
  "meta": { "total": 264, "totalPages": 22, "currentPage": 1 }
}
